DS002R - HW 7 - Web scraping – Bernice Abanda
…
Use map() to scrape all the team data between 2010 and 2024. Print the first few row of the tibble.

library(rvest)
library(dplyr)
library(tidyr)
library(purrr)

years <- 2010:2024  
standings_all <- map(years, scrape_standings) |>  
  list_rbind()  
  
# Print the first few rows of the tibble  
print(standings_all)  

# A tibble: 180 × 12
       W     L   PCT GB    CONF  HOME  ROAD  STREAK `L-10` rank  team       year
   <int> <int> <dbl> <chr> <chr> <chr> <chr> <chr>  <chr>  <chr> <chr>     <int>
 1    22    12 0.647 --    13-9  13-4  9-8   W6     8-2    1     1WASClose  2010
 2    28     6 0.824 --    20-2  17-0  11-6  W3     6-4    1     1SEAClose  2010
 3    22    12 0.647 --    14-8  13-4  9-8   W1     9-1    2     2NYLClose  2010
 4    15    19 0.441 --    13-9  9-8   6-11  L2     4-6    2     2PHOClose  2010
 5    14    20 0.412 --    11-11 8-9   6-11  W2     5-5    3     3LVAClose  2010
 6    21    13 0.618 --    13-9  12-5  9-8   L3     5-5    3     3INDClose  2010
 7    13    21 0.382 --    10-12 8-9   5-12  L1     5-5    4     4LASClose  2010
 8    19    15 0.559 --    10-12 10-7  9-8   L2     4-6    4     4ATLClose  2010
 9    17    17 0.5   --    9-13  12-5  5-12  L1     4-6    5     5CONCirc…  2010
10    13    21 0.382 --    8-14  7-10  6-11  W1     5-5    5     5MINCirc…  2010
# ℹ 170 more rows
…
